Converting data to tf
…
The DTI data in the refund package has been a popular example in functional data analysis. In the code below, we create a data frame (or tibble) containing scalar covariates, and then add columns for the cca and rcst track profiles. This code was used to create the tidyfun::dti_df dataset included in the package.

dti_df = tibble(
  id = refund::DTI$ID, 
  visit = refund::DTI$visit,
  sex = refund::DTI$sex, 
  case = factor(ifelse(refund::DTI$case, "MS", "control")))

dti_df$cca = tfd(refund::DTI$cca, arg = seq(0,1, l = 93))
dti_df$rcst = tfd(refund::DTI$rcst, arg = seq(0, 1, l = 55))

In tfd, the first argument is a matrix; arg defines the grid over which functions are observed. The output of tfd is a vector, which we include in the dti_df data frame.

dti_df
## # A tibble: 382 x 6
##       id visit sex   case                             cca
##    <dbl> <int> <fct> <fct>                          <tfd>
##  1  1001     1 fema… cont… (0.0000,0.491);(0.0109,0.51...
##  2  1002     1 fema… cont… (0.0000,0.472);(0.0109,0.48...
##  3  1003     1 male  cont… (0.0000,0.502);(0.0109,0.51...
##  4  1004     1 male  cont… (0.0000,0.402);(0.0109,0.42...
##  5  1005     1 male  cont… (0.0000,0.402);(0.0109,0.40...
##  6  1006     1 male  cont… (0.0000,0.451);(0.0109,0.45...
##  7  1007     1 male  cont… (0.0000,0.554);(0.0109,0.55...
##  8  1008     1 male  cont… (0.0000,0.448);(0.0109,0.48...
##  9  1009     1 male  cont… (0.0000,0.495);(0.0109,0.50...
## 10  1010     1 male  cont… (0.0000,0.458);(0.0109,0.47...
## # … with 372 more rows, and 1 more variable: rcst <tfd>
…
canada$temp = tfd(t(fda::CanadianWeather$dailyAv[,,1]), arg = 1:365)
canada$precipl10 = 
  tfd(t(fda::CanadianWeather$dailyAv[,,3]), arg = 1:365) %>%
  tf_smooth
## using f = 0.15 as smoother span for lowess

The resulting data frame is shown below.

canada
## # A tibble: 35 x 6
##    place region   lat   lon                         temp
##    <chr> <chr>  <dbl> <dbl>                        <tfd>
##  1 St. … Atlan…  47.3 -52.4 (1, -4);(2, -3);(3, -3); ...
##  2 Hali… Atlan…  44.4 -63.4 (1, -4);(2, -4);(3, -5); ...
##  3 Sydn… Atlan…  46.1 -60.1 (1, -4);(2, -4);(3, -5); ...
##  4 Yarm… Atlan…  43.5 -66.1 (1, -1);(2, -2);(3, -2); ...
##  5 Char… Atlan…  42.5 -80.2 (1, -6);(2, -6);(3, -7); ...
##  6 Fred… Atlan…  45.6 -66.4 (1, -8);(2, -8);(3, -9); ...
##  7 Sche… Atlan…  54.5 -64.5 (1,-22);(2,-23);(3,-23); ...
##  8 Arvi… Atlan…  48.3 -71.1 (1,-14);(2,-14);(3,-15); ...
##  9 Bago… Atlan…  48.2 -70.5 (1,-15);(2,-15);(3,-16); ...
## 10 Queb… Atlan…  46.5 -71.1 (1,-11);(2,-11);(3,-12); ...
## # … with 25 more rows, and 1 more variable: precipl10 <tfd>
…
Conversion from a data frame

… in “long” format

“Long” format data frames containing functional data include columns containing a subject identifier, the functional argument, and the value each subject’s function takes at each argument. There are also often (but not always) non-functional covariates that are repeated within a subject. For data in this form, we use tf_nest to produce a data frame containing a single row for each subject.

A first example is the pig weight data from the SemiPar package, which is a nice example from longitudinal data analysis. This includes columns for id.num, num.weeks, and weight – which correspond to the subject, argument, and value.

data("pig.weights", package = "SemiPar")

pig.weights = as_tibble(pig.weights)

pig.weights
## # A tibble: 432 x 3
##    id.num num.weeks weight
##     <int>     <int>  <dbl>
##  1      1         1   24  
##  2      1         2   32  
##  3      1         3   39  
##  4      1         4   42.5
##  5      1         5   48  
##  6      1         6   54.5
##  7      1         7   61  
##  8      1         8   65  
##  9      1         9   72  
## 10      2         1   22.5
## # … with 422 more rows

We create pig_df by nesting weight within subject. The result is a data frame containing a single row for each pig, and columns for id.num and the weight function.

pig_df = 
  pig.weights %>% 
  tf_nest(weight, .id = id.num, .arg = num.weeks)

pig_df
## # A tibble: 48 x 2
##    id.num                    weight
##     <int>                     <tfd>
##  1      1 (1,24);(2,32);(3,39); ...
##  2      2 (1,22);(2,30);(3,40); ...
##  3      3 (1,22);(2,28);(3,36); ...
##  4      4 (1,24);(2,32);(3,40); ...
##  5      5 (1,24);(2,32);(3,37); ...
##  6      6 (1,23);(2,30);(3,36); ...
##  7      7 (1,22);(2,28);(3,36); ...
##  8      8 (1,24);(2,30);(3,38); ...
##  9      9 (1,20);(2,28);(3,33); ...
## 10     10 (1,26);(2,32);(3,40); ...
## # … with 38 more rows
…
fda and fd coming soon …

Reversing the conversion

tidyfun includes a wide range of tools for exploratory analysis and visualization, but some analysis approaches require data to be stored in more traditional formats. Several functions are available to aid in this conversion.

Conversion to data frames

The functions tf_unnest and tf_spread reverse the operations in tf_nest and tf_gather, respectively – that is, they take a data frame with a functional observation and produce long or wide data frames. We’ll illustrate these with the pig_df data set.

First, to produce a long-format dataf rame, one can use tf_unnest:

pig_df %>% 
  tf_unnest()
## # A tibble: 432 x 4
##    id.num weight_id weight_arg weight_value
##     <int> <chr>          <int>        <dbl>
##  1      1 1                  1         24  
##  2      1 1                  2         32  
##  3      1 1                  3         39  
##  4      1 1                  4         42.5
##  5      1 1                  5         48  
##  6      1 1                  6         54.5
##  7      1 1                  7         61  
##  8      1 1                  8         65  
##  9      1 1                  9         72  
## 10      2 2                  1         22.5
## # … with 422 more rows

To produce a wide-format data frame, one can use tf_spread:

pig_df %>% 
  tf_spread()
## # A tibble: 48 x 10
##    id.num weight_1 weight_2 weight_3 weight_4 weight_5 weight_6 weight_7
##     <int>    <dbl>    <dbl>    <dbl>    <dbl>    <dbl>    <dbl>    <dbl>
##  1      1     24       32       39       42.5     48       54.5     61  
##  2      2     22.5     30.5     40.5     45       51       58.5     64  
##  3      3     22.5     28       36.5     41       47.5     55       61  
##  4      4     24       31.5     39.5     44.5     51       56       59.5
##  5      5     24.5     31.5     37       42.5     48       54       58  
##  6      6     23       30       35.5     41       48       51.5     56.5
##  7      7     22.5     28.5     36       43.5     47       53.5     59.5
##  8      8     23.5     30.5     38       41       48.5     55       59.5
##  9      9     20       27.5     33       39       43.5     49       54.5
## 10     10     25.5     32.5     39.5     47       53       58.5     63  
## # … with 38 more rows, and 2 more variables: weight_8 <dbl>,
## #   weight_9 <dbl>
…
weight_matrix = 
  weight_vec %>% as.matrix

weight_matrix[1:3, 1:5]
##      1    2    3    4    5
## 1 24.0 32.0 39.0 42.5 48.0
## 2 22.5 30.5 40.5 45.0 51.0
## 3 22.5 28.0 36.5 41.0 47.5

To convert a tf vector to a standalone data frame with "id","arg","value"-columns, use as.data.frame():

weight_vec %>% 
  as.data.frame()
## # A tibble: 432 x 3
##    id      arg value
##    <ord> <int> <dbl>
##  1 1         1  24  
##  2 1         2  32  
##  3 1         3  39  
##  4 1         4  42.5
##  5 1         5  48  
##  6 1         6  54.5
##  7 1         7  61  
##  8 1         8  65  
##  9 1         9  72  
## 10 2         1  22.5
## # … with 422 more rows
