Data Wrangling
…
Example datasets

The datasets used in this vignette are the
tidyfun::chf_df and tidyfun::dti_df dataset.
The first contains minute-by-minute observations of log activity counts
(stored as a tfd vector called activity) over
seven days for each of 47 subjects with congestive heart failure. In
addition to id and activity, we observe
several covariates.

data(chf_df)

chf_df
## # A tibble: 329 × 8
##       id gender   age   bmi event_week event_type day  
##    <dbl> <chr>  <dbl> <dbl>      <dbl> <chr>      <ord>
##  1     1 Male      41    26         41 .          Mon  
##  2     1 Male      41    26         41 .          Tue  
##  3     1 Male      41    26         41 .          Wed  
##  4     1 Male      41    26         41 .          Thu  
##  5     1 Male      41    26         41 .          Fri  
##  6     1 Male      41    26         41 .          Sat  
##  7     1 Male      41    26         41 .          Sun  
##  8     3 Female    81    21         32 .          Mon  
##  9     3 Female    81    21         32 .          Tue  
## 10     3 Female    81    21         32 .          Wed  
## # … with 319 more rows, and 1 more variable: activity <tfd_reg>
…
The tidyfun::dti_df contains fractional anisotropy (FA)
tract profiles for the corpus callosum (cca) and the right corticospinal
tract (rcst), along with several covariates.

data(dti_df)

dti_df
## # A tibble: 382 × 6
##       id visit sex    case                                                  cca
##    <dbl> <int> <fct>  <fct>                                          <tfd_irrg>
##  1  1001     1 female control  [1]: (0.000,0.49);(0.011,0.52);(0.022,0.54); ...
##  2  1002     1 female control  [2]: (0.000,0.47);(0.011,0.49);(0.022,0.50); ...
##  3  1003     1 male   control  [3]: (0.000,0.50);(0.011,0.51);(0.022,0.54); ...
##  4  1004     1 male   control  [4]: (0.000,0.40);(0.011,0.42);(0.022,0.44); ...
##  5  1005     1 male   control  [5]: (0.000,0.40);(0.011,0.41);(0.022,0.40); ...
##  6  1006     1 male   control  [6]: (0.000,0.45);(0.011,0.45);(0.022,0.46); ...
##  7  1007     1 male   control  [7]: (0.000,0.55);(0.011,0.56);(0.022,0.56); ...
##  8  1008     1 male   control  [8]: (0.000,0.45);(0.011,0.48);(0.022,0.50); ...
##  9  1009     1 male   control  [9]: (0.000,0.50);(0.011,0.51);(0.022,0.52); ...
## 10  1010     1 male   control [10]: (0.000,0.46);(0.011,0.47);(0.022,0.48); ...
## # … with 372 more rows, and 1 more variable: rcst <tfd_irrg>
…
Functions for data manipulation from tidyr are also
supported. We illustrate by using pivot_wider to create new
tfd-columns containing the activity profiles for each day
of the week:

chf_df %>% 
  select(id, day, activity) %>% 
  pivot_wider(
    names_from = day, 
    values_from = activity)
## # A tibble: 47 × 8
##       id                          Mon                          Tue
##    <dbl>                    <tfd_reg>                    <tfd_reg>
##  1     1  [1]: (1,0);(2,0);(3,0); ...  [1]: (1,0);(2,0);(3,5); ...
##  2     3  [2]: (1,3);(2,5);(3,5); ...  [2]: (1,0);(2,5);(3,6); ...
##  3     4  [3]: (1,0);(2,0);(3,0); ...  [3]: (1,4);(2,0);(3,3); ...
##  4     5  [4]: (1,5);(2,4);(3,5); ...  [4]: (1,4);(2,6);(3,7); ...
##  5     6  [5]: (1,0);(2,7);(3,0); ...  [5]: (1,0);(2,0);(3,0); ...
##  6     7  [6]: (1,5);(2,7);(3,5); ...  [6]: (1,4);(2,2);(3,5); ...
##  7     8  [7]: (1,0);(2,0);(3,0); ...  [7]: (1,0);(2,0);(3,0); ...
##  8     9  [8]: (1,0);(2,0);(3,0); ...  [8]: (1,2);(2,0);(3,0); ...
##  9    10  [9]: (1,0);(2,4);(3,0); ...  [9]: (1,0);(2,0);(3,0); ...
## 10    11 [10]: (1,0);(2,0);(3,0); ... [10]: (1,0);(2,0);(3,0); ...
## # … with 37 more rows, and 5 more variables: Wed <tfd_reg>, Thu <tfd_reg>,
## #   Fri <tfd_reg>, Sat <tfd_reg>, Sun <tfd_reg>
…
monday_df <- filter(chf_df, day == "Mon") %>% 
  select(id, monday_act = activity)
friday_df <- filter(chf_df, day == "Fri") %>% 
  select(id, friday_act = activity)

These can be joined using the id variable as a key (and
then tidied using pivot_longer):

left_join(monday_df, friday_df, by = "id") %>% 
  pivot_longer(
    monday_act:friday_act,
    names_to = "day", 
    values_to = "activity")
## # A tibble: 94 × 3
##       id day                            activity
##    <dbl> <chr>                         <tfd_reg>
##  1     1 monday_act  [1]: (1,0);(2,0);(3,0); ...
##  2     1 friday_act  [2]: (1,6);(2,0);(3,0); ...
##  3     3 monday_act  [3]: (1,3);(2,5);(3,5); ...
##  4     3 friday_act  [4]: (1,6);(2,6);(3,6); ...
##  5     4 monday_act  [5]: (1,0);(2,0);(3,0); ...
##  6     4 friday_act  [6]: (1,0);(2,0);(3,0); ...
##  7     5 monday_act  [7]: (1,5);(2,4);(3,5); ...
##  8     5 friday_act  [8]: (1,6);(2,2);(3,6); ...
##  9     6 monday_act  [9]: (1,0);(2,7);(3,0); ...
## 10     6 friday_act [10]: (1,0);(2,0);(3,0); ...
## # … with 84 more rows
…
