…
## See also

[chf_df](https://tidyfun.github.io/tidyfun/reference/chf_df.md) for
another example dataset,
[`vignette("x04_Visualization", package = "tidyfun")`](https://tidyfun.github.io/tidyfun/articles/x04_Visualization.md)
for usage examples.

Other tidyfun datasets:
[`chf_df`](https://tidyfun.github.io/tidyfun/reference/chf_df.md)

## Examples

``` r
dti_df
#> # A tibble: 382 × 6
#>       id visit sex    case                                            cca
#>    <dbl> <int> <fct>  <fct>                                   <tfd_irreg>
#>  1  1001     1 female control (0.000,0.49);(0.011,0.52);(0.022,0.54); ...
#>  2  1002     1 female control (0.000,0.47);(0.011,0.49);(0.022,0.50); ...
#>  3  1003     1 male   control (0.000,0.50);(0.011,0.51);(0.022,0.54); ...
#>  4  1004     1 male   control (0.000,0.40);(0.011,0.42);(0.022,0.44); ...
#>  5  1005     1 male   control (0.000,0.40);(0.011,0.41);(0.022,0.40); ...
#>  6  1006     1 male   control (0.000,0.45);(0.011,0.45);(0.022,0.46); ...
#>  7  1007     1 male   control (0.000,0.55);(0.011,0.56);(0.022,0.56); ...
#>  8  1008     1 male   control (0.000,0.45);(0.011,0.48);(0.022,0.50); ...
#>  9  1009     1 male   control (0.000,0.50);(0.011,0.51);(0.022,0.52); ...
#> 10  1010     1 male   control (0.000,0.46);(0.011,0.47);(0.022,0.48); ...
#> # ℹ 372 more rows
#> # ℹ 1 more variable: rcst <tfd_irreg>
…
