Turn (data frames with) tf-objects / list columns into "long" tables. — tf_unnest • tidyfun
…
    tf_evaluate.data.frame()

Other tidyfun data wrangling functions:
tf_evaluate.data.frame(),
tf_gather(),
tf_nest(),
tf_spread()

    Examples

d <- dplyr::tibble(id = 1:3)
d$f <- tf_rgp(3, 11L)
tf_unnest(d, f)
#> # A tibble: 33 × 3
#>       id f_arg f_value
#>    <int> <dbl>   <dbl>
#>  1     1   0   -0.0291
#>  2     1   0.1  0.122 
#>  3     1   0.2  0.373 
#>  4     1   0.3  0.529 
#>  5     1   0.4  0.444 
#>  6     1   0.5  0.116 
#>  7     1   0.6 -0.487 
#>  8     1   0.7 -1.14  
#>  9     1   0.8 -1.43  
#> 10     1   0.9 -1.29  
#> # ℹ 23 more rows
…
