Tools for Tidy Functional Data • tidyfun
…
For detailed information on the features of tidyfun, check out articles on the following topics:

Representing functional data as tf vectors, and operating on those vectors

Converting non-tidy functional data (matrices, “long” and “wide” data frames) to tidy functional data

Wrangling data frames that include functional data using tidyverse and tidyfun tools

Visualizing tidy functional data

The result is a package that enables exploratory data analysis like the following, which computes and then smooths group-specific mean curves in the dti_df dataset, and plots the result:

dti_df
## # A tibble: 382 x 5
##       id sex    case   cca                        rcst                     
##    <dbl> <fct>  <fct>  <tfd_irrg>                 <tfd_irrg>               
##  1  1001 female contr… 1001_1: (0.000,0.49);(0.0… 1001_1: (0.000,0.26);(0.…
##  2  1002 female contr… 1002_1: (0.000,0.47);(0.0… 1002_1: ( 0.22,0.44);( 0…
##  3  1003 male   contr… 1003_1: (0.000,0.50);(0.0… 1003_1: ( 0.22,0.42);( 0…
##  4  1004 male   contr… 1004_1: (0.000,0.40);(0.0… 1004_1: (0.000,0.51);(0.…
##  5  1005 male   contr… 1005_1: (0.000,0.40);(0.0… 1005_1: ( 0.22,0.40);( 0…
##  6  1006 male   contr… 1006_1: (0.000,0.45);(0.0… 1006_1: (0.056,0.47);(0.…
##  7  1007 male   contr… 1007_1: (0.000,0.55);(0.0… 1007_1: (0.000,0.52);(0.…
##  8  1008 male   contr… 1008_1: (0.000,0.45);(0.0… 1008_1: (0.000,0.33);(0.…
##  9  1009 male   contr… 1009_1: (0.000,0.50);(0.0… 1009_1: (0.000,0.57);(0.…
## 10  1010 male   contr… 1010_1: (0.000,0.46);(0.0… 1010_1: ( 0.22,0.44);( 0…
## # … with 372 more rows
…
