Converting data to tf • tidyfun
…
From data frame

… in “long” format

throughout, tf_nest is the key function.

Pig weight, from package SemiPar

data("pig.weights", package = "SemiPar")

pig.weights = as_tibble(pig.weights)

pig.weights
## # A tibble: 432 x 3
##    id.num num.weeks weight
##     <int>     <int>  <dbl>
##  1      1         1   24  
##  2      1         2   32  
##  3      1         3   39  
##  4      1         4   42.5
##  5      1         5   48  
##  6      1         6   54.5
##  7      1         7   61  
##  8      1         8   65  
##  9      1         9   72  
## 10      2         1   22.5
## # … with 422 more rows

pig_df = 
  pig.weights %>% 
  tf_nest(weight, .id = id.num, .arg = num.weeks)

pig_df
## # A tibble: 48 x 2
##    id.num weight                       
##     <int> <tfd_reg>                    
##  1      1 1: (1,24);(2,32);(3,39); ... 
##  2      2 2: (1,22);(2,30);(3,40); ... 
##  3      3 3: (1,22);(2,28);(3,36); ... 
##  4      4 4: (1,24);(2,32);(3,40); ... 
##  5      5 5: (1,24);(2,32);(3,37); ... 
##  6      6 6: (1,23);(2,30);(3,36); ... 
##  7      7 7: (1,22);(2,28);(3,36); ... 
##  8      8 8: (1,24);(2,30);(3,38); ... 
##  9      9 9: (1,20);(2,28);(3,33); ... 
## 10     10 10: (1,26);(2,32);(3,40); ...
## # … with 38 more rows
…
