Data Wrangling • tidyfun
…
The goal of tidyfun is to provide accessible and well-documented software that makes functional data analysis in R easy. In this vignette, we explore some aspects of data manipulation that are possible using tidyfun, emphasizing compatibility with the tidyverse.

Other vignettes have examined the tfd & tfb data types, and how to convert common formats for functional data (e.g. matrices, long- and wide-format data frames, fda objects) in these new data types. Because our goal is “tidy” data manipulation for functional data analysis, the result of data conversion processes has been a data frame in which a column contains the functional data of interest. This vignette starts from that point.

Throughout, we make use of some visualization tools – these are explained in more detail in the visualization vignette.

Example datasets

The datasets used in this vignette are the tidyfun::chf_df and tidyfun::dti_df dataset. The first contains minute-by-minute observations of log activity counts (stored as a tfd vector called activity) over seven days for each of 47 subjects with congestive heart failure. In addition to id and activity, we observe several covariates.

data(chf_df)

chf_df
## # A tibble: 329 x 9
##       id gender   age   bmi event_week event_type  week day    activity    
##    <int> <chr>  <int> <int>      <int> <chr>      <int> <chr>  <tfd_reg>   
##  1     1 Male      41    26         41 .              1 Monday [1]: (1,0);…
##  2     1 Male      41    26         41 .              1 Tuesd… [2]: (1,0);…
##  3     1 Male      41    26         41 .              1 Wedne… [3]: (1,0);…
##  4     1 Male      41    26         41 .              1 Thurs… [4]: (1,4);…
##  5     1 Male      41    26         41 .              1 Friday [5]: (1,6);…
##  6     1 Male      41    26         41 .              1 Satur… [6]: (1,0);…
##  7     1 Male      41    26         41 .              1 Sunday [7]: (1,5);…
##  8     3 Female    81    21         32 .              1 Monday [8]: (1,3);…
##  9     3 Female    81    21         32 .              1 Tuesd… [9]: (1,0);…
## 10     3 Female    81    21         32 .              1 Wedne… [10]: (1,0)…
## # … with 319 more rows
…
The tidyfun::dti_df contains ractional anisotropy (FA) tract profiles for the corpus callosum (cca) and the right corticospinal tract (rcst), along with several covariates.

data(dti_df)

dti_df
## # A tibble: 382 x 6
##       id visit sex    case   cca                     rcst                  
##    <dbl> <int> <fct>  <fct>  <tfd_irrg>              <tfd_irrg>            
##  1  1001     1 female contr… 1001_1: (0.000,0.49);(… 1001_1: (0.000,0.26);…
##  2  1002     1 female contr… 1002_1: (0.000,0.47);(… 1002_1: ( 0.22,0.44);…
##  3  1003     1 male   contr… 1003_1: (0.000,0.50);(… 1003_1: ( 0.22,0.42);…
##  4  1004     1 male   contr… 1004_1: (0.000,0.40);(… 1004_1: (0.000,0.51);…
##  5  1005     1 male   contr… 1005_1: (0.000,0.40);(… 1005_1: ( 0.22,0.40);…
##  6  1006     1 male   contr… 1006_1: (0.000,0.45);(… 1006_1: (0.056,0.47);…
##  7  1007     1 male   contr… 1007_1: (0.000,0.55);(… 1007_1: (0.000,0.52);…
##  8  1008     1 male   contr… 1008_1: (0.000,0.45);(… 1008_1: (0.000,0.33);…
##  9  1009     1 male   contr… 1009_1: (0.000,0.50);(… 1009_1: (0.000,0.57);…
## 10  1010     1 male   contr… 1010_1: (0.000,0.46);(… 1010_1: ( 0.22,0.44);…
## # … with 372 more rows
…
Functions for data manipulation from tidyr are also supported. We illustrate by using spread to create new tfd observations of activity for each day of the week:

chf_df %>% 
  select(id, day, activity) %>% 
  spread(key = day, value = activity)
## # A tibble: 47 x 8
##       id Friday   Monday   Saturday   Sunday  Thursday  Tuesday  Wednesday 
##    <int> <tfd_re> <tfd_re> <tfd_reg>  <tfd_r> <tfd_reg> <tfd_re> <tfd_reg> 
##  1     1 [1]: (1… [1]: (1… [1]: (1,0… [1]: (… [1]: (1,… [1]: (1… [1]: (1,0…
##  2     3 [2]: (1… [2]: (1… [2]: (1,2… [2]: (… [2]: (1,… [2]: (1… [2]: (1,0…
##  3     4 [3]: (1… [3]: (1… [3]: (1,5… [3]: (… [3]: (1,… [3]: (1… [3]: (1,5…
##  4     5 [4]: (1… [4]: (1… [4]: (1,5… [4]: (… [4]: (1,… [4]: (1… [4]: (1,4…
##  5     6 [5]: (1… [5]: (1… [5]: (1,0… [5]: (… [5]: (1,… [5]: (1… [5]: (1,0…
##  6     7 [6]: (1… [6]: (1… [6]: (1,3… [6]: (… [6]: (1,… [6]: (1… [6]: (1,0…
##  7     8 [7]: (1… [7]: (1… [7]: (1,0… [7]: (… [7]: (1,… [7]: (1… [7]: (1,0…
##  8     9 [8]: (1… [8]: (1… [8]: (1,0… [8]: (… [8]: (1,… [8]: (1… [8]: (1,0…
##  9    10 [9]: (1… [9]: (1… [9]: (1,6… [9]: (… [9]: (1,… [9]: (1… [9]: (1,0…
## 10    11 [10]: (… [10]: (… [10]: (1,… [10]: … [10]: (1… [10]: (… [10]: (1,…
## # … with 37 more rows

(Note that this has made the data less “tidy” and is therefore not generally recommended, but may be useful in some cases).

It’s also possible to join datasets based on non-functional keys. To illustrate, we’ll first create a pair of datasets:

monday_df = filter(chf_df, day == "Monday") %>% 
  select(id, monday_act = activity)
friday_df = filter(chf_df, day == "Friday") %>% 
  select(id, friday_act = activity)

These can be joined using the id variable as a key (and then tidied using gather):

left_join(monday_df, friday_df, by = "id") %>% 
  gather(key = day, value = activity, monday_act:friday_act)
## # A tibble: 94 x 3
##       id day        activity                    
##    <int> <chr>      <tfd_reg>                   
##  1     1 monday_act [1]: (1,0);(2,0);(3,0); ... 
##  2     3 monday_act [2]: (1,3);(2,5);(3,5); ... 
##  3     4 monday_act [3]: (1,0);(2,0);(3,0); ... 
##  4     5 monday_act [4]: (1,5);(2,4);(3,5); ... 
##  5     6 monday_act [5]: (1,0);(2,7);(3,0); ... 
##  6     7 monday_act [6]: (1,5);(2,7);(3,5); ... 
##  7     8 monday_act [7]: (1,0);(2,0);(3,0); ... 
##  8     9 monday_act [8]: (1,0);(2,0);(3,0); ... 
##  9    10 monday_act [9]: (1,0);(2,4);(3,0); ... 
## 10    11 monday_act [10]: (1,0);(2,0);(3,0); ...
## # … with 84 more rows
…
Lastly, we note that it’s possible to convert from tfd to tfb vectors; this can be done inside a mutate statement as part of a data processing pipeline:

chf_df %>% 
  mutate(act_basis = tfb(activity)) %>% 
  select(id, gender, act_basis)
## Percentage of input data variability preserved in basis representation
## (per functional observation, approximate):
##    Min. 1st Qu.  Median    Mean 3rd Qu.    Max.    NA's 
##   16.80   41.60   50.25   49.57   57.55   88.70       1
## # A tibble: 329 x 3
##       id gender act_basis                               
##    <int> <chr>  <tfb_spln>                              
##  1     1 Male   [1]: (1, -0.2);(2, -0.2);(3, -0.1); ... 
##  2     1 Male   [2]: (1,  0.4);(2,  0.4);(3,  0.4); ... 
##  3     1 Male   [3]: (1,-0.07);(2,-0.06);(3,-0.06); ... 
##  4     1 Male   [4]: (1,  0.7);(2,  0.7);(3,  0.7); ... 
##  5     1 Male   [5]: (1,  0.6);(2,  0.6);(3,  0.6); ... 
##  6     1 Male   [6]: (1,  0.2);(2,  0.2);(3,  0.3); ... 
##  7     1 Male   [7]: (1,    5);(2,    5);(3,    5); ... 
##  8     3 Female [8]: (1,    5);(2,    5);(3,    5); ... 
##  9     3 Female [9]: (1,    2);(2,    1);(3,    1); ... 
## 10     3 Female [10]: (1,    4);(2,    3);(3,    3); ...
## # … with 319 more rows

Some not-allowed tidying

Unfortunately, based on the existing infrastructure for non-standard data types in dplyr, some operations are not possible at this time. The most important of these to note are binds.

Using the datasets defined above, it would ideally be possible to combine these using bind_rows, but the following code does not work:

bind_rows(monday_df, friday_df)
## Warning in bind_rows_(x, .id): Vectorizing 'tfd_reg' elements may not
## preserve their attributes

## Warning in bind_rows_(x, .id): Vectorizing 'tfd_reg' elements may not
## preserve their attributes
## # A tibble: 94 x 3
##       id monday_act    friday_act
##    <int> <list>        <list>    
##  1     1 <dbl [1,440]> <NULL>    
##  2     3 <dbl [1,440]> <NULL>    
##  3     4 <dbl [1,440]> <NULL>    
##  4     5 <dbl [1,440]> <NULL>    
##  5     6 <dbl [1,440]> <NULL>    
##  6     7 <dbl [1,440]> <NULL>    
##  7     8 <dbl [1,440]> <NULL>    
##  8     9 <dbl [1,440]> <NULL>    
##  9    10 <dbl [1,440]> <NULL>    
## 10    11 <dbl [1,440]> <NULL>    
## # … with 84 more rows
…
