Visualization • tidyfun
…
Plotting tidyfun data

The tidyfun package is designed to facilitate functional data analysis in R, with particular emphasis on compatibility with the tidyverse. In this vignette, we illustrate data visualization using tidyfun.

Other vignettes have examined the tfd & tfb data types; how to convert common formats for functional data into these new data types; and data manipulation using tf vectors in data frames. We’ll use these in the following, and focus more specifically on visualiation

Example Data

The data used in this vignette is the tidyfun::chf_df dataset. The data contain minute-by-minute observations of log activity counts (stored as a tfd vector called activity) over seven days for each of 47 subjects with congestive heart failure. In addition to id and activity, we observe several covariates.

data(chf_df)

chf_df
## # A tibble: 329 x 9
##       id gender   age   bmi event_week event_type  week day    activity   
##    <int> <chr>  <int> <int>      <int> <chr>      <int> <chr>  <S3: tfd_r>
##  1     1 Male      41    26         41 .              1 Monday [1]: (1,0)…
##  2     1 Male      41    26         41 .              1 Tuesd… [2]: (1,0)…
##  3     1 Male      41    26         41 .              1 Wedne… [3]: (1,0)…
##  4     1 Male      41    26         41 .              1 Thurs… [4]: (1,4)…
##  5     1 Male      41    26         41 .              1 Friday [5]: (1,6)…
##  6     1 Male      41    26         41 .              1 Satur… [6]: (1,0)…
##  7     1 Male      41    26         41 .              1 Sunday [7]: (1,5)…
##  8     3 Female    81    21         32 .              1 Monday [8]: (1,3)…
##  9     3 Female    81    21         32 .              1 Tuesd… [9]: (1,0)…
## 10     3 Female    81    21         32 .              1 Wedne… [10]: (1,0…
## # ... with 319 more rows
…
