…
dti_df$cca <- tfd(refund::DTI$cca, arg = seq(0, 1, length.out = 93))
dti_df$rcst <- tfd(refund::DTI$rcst, arg = seq(0, 1, length.out = 55))
```

In `tfd`, the first argument is a matrix; `arg` defines the grid over
which functions are observed. The output of `tfd` is a vector, which we
include in the `dti_df` data frame.

``` r
dti_df
## # A tibble: 382 × 6
##       id visit sex    case                                            cca
##    <dbl> <int> <fct>  <fct>                                   <tfd_irreg>
##  1  1001     1 female control (0.000,0.49);(0.011,0.52);(0.022,0.54); ...
##  2  1002     1 female control (0.000,0.47);(0.011,0.49);(0.022,0.50); ...
##  3  1003     1 male   control (0.000,0.50);(0.011,0.51);(0.022,0.54); ...
##  4  1004     1 male   control (0.000,0.40);(0.011,0.42);(0.022,0.44); ...
##  5  1005     1 male   control (0.000,0.40);(0.011,0.41);(0.022,0.40); ...
##  6  1006     1 male   control (0.000,0.45);(0.011,0.45);(0.022,0.46); ...
##  7  1007     1 male   control (0.000,0.55);(0.011,0.56);(0.022,0.56); ...
##  8  1008     1 male   control (0.000,0.45);(0.011,0.48);(0.022,0.50); ...
##  9  1009     1 male   control (0.000,0.50);(0.011,0.51);(0.022,0.52); ...
## 10  1010     1 male   control (0.000,0.46);(0.011,0.47);(0.022,0.48); ...
## # ℹ 372 more rows
## # ℹ 1 more variable: rcst <tfd_irreg>
```
…
The resulting data frame is shown below.

``` r
canada
## # A tibble: 35 × 6
##    place       region     lat   lon                       temp
##    <chr>       <chr>    <dbl> <dbl>                  <tfd_reg>
##  1 St. Johns   Atlantic  47.3 -52.4 ▄▄▄▄▄▅▅▅▆▆▆▇▇▇██▇▇▇▇▆▆▆▅▅▅
##  2 Halifax     Atlantic  44.4 -63.4 ▄▄▄▄▄▅▅▆▆▇▇▇██████▇▇▆▆▆▅▅▄
##  3 Sydney      Atlantic  46.1 -60.1 ▄▄▄▄▄▅▅▅▆▆▇▇██████▇▇▆▆▆▅▅▄
##  4 Yarmouth    Atlantic  43.5 -66.1 ▄▄▄▄▅▅▅▆▆▇▇▇▇█████▇▇▇▆▆▆▅▅
##  5 Charlottvl  Atlantic  42.5 -80.2 ▄▄▃▄▄▄▅▅▆▆▇▇██████▇▇▆▆▆▅▄▄
##  6 Fredericton Atlantic  45.6 -66.4 ▃▃▃▄▄▅▅▆▆▇▇███████▇▇▆▆▅▅▄▄
##  7 Scheffervll Atlantic  54.5 -64.5 ▁▁▁▁▂▂▃▄▄▅▆▆▇▇▇▇▇▆▆▅▅▄▄▃▂▁
##  8 Arvida      Atlantic  48.3 -71.1 ▂▂▂▃▃▄▅▆▆▇▇███████▇▆▆▆▅▄▃▃
##  9 Bagottville Atlantic  48.2 -70.5 ▂▂▂▃▃▄▅▅▆▇▇▇█████▇▇▆▆▅▅▄▃▃
## 10 Quebec      Atlantic  46.5 -71.1 ▃▃▃▃▄▄▅▆▆▇▇███████▇▇▆▆▅▄▄▃
## # ℹ 25 more rows
## # ℹ 1 more variable: precipl10 <tfd_reg>
```
…
A first example is the `sleepstudy` data from the **`lme4`** package,
which is a nice example from longitudinal data analysis. This includes
columns for `Subject`, `Days`, and `Reaction` – which correspond to the
subject, argument, and value.

``` r
data("sleepstudy", package = "lme4")
sleepstudy <- as_tibble(sleepstudy)

sleepstudy
## # A tibble: 180 × 3
##    Reaction  Days Subject
##       <dbl> <dbl> <fct>  
##  1     250.     0 308    
##  2     259.     1 308    
##  3     251.     2 308    
##  4     321.     3 308    
##  5     357.     4 308    
##  6     415.     5 308    
##  7     382.     6 308    
##  8     290.     7 308    
##  9     431.     8 308    
## 10     466.     9 308    
## # ℹ 170 more rows
```
…
