…
The datasets used in this vignette are the
[`tidyfun::chf_df`](https://tidyfun.github.io/tidyfun/reference/chf_df.md)
and
[`tidyfun::dti_df`](https://tidyfun.github.io/tidyfun/reference/dti_df.md)
dataset. The first contains minute-by-minute observations of log
activity counts (stored as a `tfd` vector called `activity`) over seven
days for each of 47 subjects with congestive heart failure. In addition
to `id` and `activity`, we observe several covariates.

``` r
data(chf_df)

chf_df
## # A tibble: 329 × 8
##       id gender   age   bmi event_week event_type day  
##    <dbl> <chr>  <dbl> <dbl>      <dbl> <chr>      <ord>
##  1     1 Male      41    26         41 .          Mon  
##  2     1 Male      41    26         41 .          Tue  
##  3     1 Male      41    26         41 .          Wed  
##  4     1 Male      41    26         41 .          Thu  
##  5     1 Male      41    26         41 .          Fri  
##  6     1 Male      41    26         41 .          Sat  
##  7     1 Male      41    26         41 .          Sun  
##  8     3 Female    81    21         32 .          Mon  
##  9     3 Female    81    21         32 .          Tue  
## 10     3 Female    81    21         32 .          Wed  
## # ℹ 319 more rows
## # ℹ 1 more variable: activity <tfd_reg>
```
…
The
[`tidyfun::dti_df`](https://tidyfun.github.io/tidyfun/reference/dti_df.md)
contains fractional anisotropy (FA) tract profiles for the corpus
callosum (cca) and the right corticospinal tract (rcst), along with
several covariates.

``` r
data(dti_df)

dti_df
## # A tibble: 382 × 6
##       id visit sex    case                                            cca
##    <dbl> <int> <fct>  <fct>                                   <tfd_irreg>
##  1  1001     1 female control (0.000,0.49);(0.011,0.52);(0.022,0.54); ...
##  2  1002     1 female control (0.000,0.47);(0.011,0.49);(0.022,0.50); ...
##  3  1003     1 male   control (0.000,0.50);(0.011,0.51);(0.022,0.54); ...
##  4  1004     1 male   control (0.000,0.40);(0.011,0.42);(0.022,0.44); ...
##  5  1005     1 male   control (0.000,0.40);(0.011,0.41);(0.022,0.40); ...
##  6  1006     1 male   control (0.000,0.45);(0.011,0.45);(0.022,0.46); ...
##  7  1007     1 male   control (0.000,0.55);(0.011,0.56);(0.022,0.56); ...
##  8  1008     1 male   control (0.000,0.45);(0.011,0.48);(0.022,0.50); ...
##  9  1009     1 male   control (0.000,0.50);(0.011,0.51);(0.022,0.52); ...
## 10  1010     1 male   control (0.000,0.46);(0.011,0.47);(0.022,0.48); ...
## # ℹ 372 more rows
## # ℹ 1 more variable: rcst <tfd_irreg>
```
…
Functions for data manipulation from **`tidyr`** are also supported. We
illustrate by using `pivot_wider` to create new `tfd`-columns containing
the activity profiles for each day of the week:

``` r
chf_df |>
  select(id, day, activity) |>
  pivot_wider(
    names_from = day,
    values_from = activity
  )
## # A tibble: 47 × 8
##       id                        Mon                        Tue
##    <dbl>                  <tfd_reg>                  <tfd_reg>
##  1     1 ▁▂▁▁▁▁▁▁▂▃▅▅▁▁▁▂▃▅▅▂▂▂▃▃▂▁ ▁▁▁▁▁▃▂▁▂▁▄▄▄▆▅▆▅▄▆▅▅▅▂▃▄▂
##  2     3 ▆▅▄▅▄▄▅▄▄▄▆▅▃▅▅▆▅▅▅▅▄▅▅▄▅▅ ▂▁▂▁▁▁▁▄▂▁▁▂▆▆▅▅▄▅▆▇▇▆▅▄▄▅
##  3     4 ▃▂▂▂▁▁▁▁▆▅▃▆▆▆▆▆▅▅▆▆▆▅▅▅▄▁ ▁▂▁▁▁▁▃▁▄▆▅▆▆▅▆▅▄▅▅▅▅▄▄▄▄▄
##  4     5 ▆▆▆▅▅▅▅▅▅▅▆▆▅▆▆▆▅▅▅▅▆▅▆▇▇▇ ▅▅▅▆▅▅▆▅▆▇▇▆▇▇▇▇▆▆▆▆▆▆▆▆▆▅
##  5     6 ▁▁▁▁▁▁▁▄▅▅▄▅▃▁▁▂▅▄▅▅▅▄▅▃▂▁ ▁▁▁▁▁▁▁▄▆▅▄▅▃▄▅▅▄▅▅▄▅▄▃▃▁▁
##  6     7 ▁▁▁▁▃▁▂▂▁▃▃▄▅▆▅▅▅▅▅▃▄▆▅▅▅▅ ▄▂▂▄▁▁▂▁▁▄▄▅▅▅▅▅▄▆▄▅▄▄▄▅▅▄
##  7     8 ▁▁▁▁▁▁▁▁▁▁▆▆▁▄▅▆▆▆▆▇▆▄▂▃▁▁ ▁▁▁▁▁▁▁▂▃▅▅▅▄▆▄▆▆▆▅▁▁▁▁▁▁▁
##  8     9 ▁▂▁▁▁▁▁▁▁▁▄▂▃▄▄▃▄▄▂▂▃▃▄▃▂▃ ▁▁▂▁▁▁▁▁▁▁▁▄▃▃▃▂▃▁▃▃▄▃▃▃▃▁
##  9    10 ▁▁▁▁▁▄▂▄▆▄▃▃▅▂▅▄▄▅▅▄▃▁▃▂▁▁ ▁▁▁▂▂▄▅▄▇▇▇▇▆▇▆▆▆▅▅▅▄▃▄▂▂▁
## 10    11 ▁▁▁▂▁▃▁▁▃▅▅▃▄▆▅▅▅▄▆▅▆▅▆▆▆▂ ▁▁▁▁▄▃▂▁▄▆▄▅▆▃▄▃▅▆▅▅▅▅▆▁▁▂
## # ℹ 37 more rows
## # ℹ 5 more variables: Wed <tfd_reg>, Thu <tfd_reg>, Fri <tfd_reg>,
## #   Sat <tfd_reg>, Sun <tfd_reg>
```
…
These can be joined using the `id` variable as a key (and then tidied
using `pivot_longer`):

``` r
monday_df |>
  left_join(friday_df, by = "id") |>
  pivot_longer(monday_act:friday_act, names_to = "day", values_to = "activity")
## # A tibble: 94 × 3
##       id day                          activity
##    <dbl> <chr>                       <tfd_reg>
##  1     1 monday_act ▁▂▁▁▁▁▁▁▂▃▅▅▁▁▁▂▃▅▅▂▂▂▃▃▂▁
##  2     1 friday_act ▁▁▁▂▂▁▁▂▃▄▆▅▂▁▁▁▂▅▅▄▃▃▂▂▂▁
##  3     3 monday_act ▆▅▄▅▄▄▅▄▄▄▆▅▃▅▅▆▅▅▅▅▄▅▅▄▅▅
##  4     3 friday_act ▅▅▃▃▃▃▃▄▄▄▄▆▆▅▅▆▆▆▆▆▅▅▅▆▆▅
##  5     4 monday_act ▃▂▂▂▁▁▁▁▆▅▃▆▆▆▆▆▅▅▆▆▆▅▅▅▄▁
##  6     4 friday_act ▂▂▂▁▁▂▂▄▃▁▁▃▅▅▅▅▄▄▆▆▅▁▁▁▁▅
##  7     5 monday_act ▆▆▆▅▅▅▅▅▅▅▆▆▅▆▆▆▅▅▅▅▆▅▆▇▇▇
##  8     5 friday_act ▆▆▆▅▅▆▆▆▆▆▇▆▆▆▆▆▅▆▆▆▆▅▅▅▆▆
##  9     6 monday_act ▁▁▁▁▁▁▁▄▅▅▄▅▃▁▁▂▅▄▅▅▅▄▅▃▂▁
## 10     6 friday_act ▁▁▁▁▁▁▂▄▆▆▃▃▂▅▅▄▃▄▄▅▄▃▄▃▁▁
## # ℹ 84 more rows
```
…
